{
  "extends": ["tslint-react", "tslint-config-prettier"],
  "linterOptions": {
    "exclude": ["config/**/*.js", "node_modules/**/*.ts"]
  },
  "rules": {
    "no-console": [true, "debug", "info", "time", "timeEnd", "trace"]
  }
}
